<unit-test>
  <artifacts>
    <test-artifact>
      <artifact>src/main/wso2mi/artifacts/apis/UserInfoRestAPI.xml</artifact>
    </test-artifact>
    <supportive-artifacts>
      <artifact>src/main/wso2mi/artifacts/local-entries/UsersHttpEPConnection.xml</artifact>
    </supportive-artifacts>
    <registry-resources></registry-resources>
    <connector-resources>
      <connector-resource>src/main/wso2mi/resources/connectors/mi-connector-http-0.1.7.zip</connector-resource>
    </connector-resources>
  </artifacts>
  <test-cases>
    <test-case name="ProxyingREST">
      <input>
        <request-path>/users</request-path>
        <request-method>GET</request-method>
      </input>
      <assertions>
        <assertEquals>
          <actual>$body</actual>
          <expected><![CDATA[{"page":1,"per_page":6,"total":12,"total_pages":2,"data":[{"id":1,"email":"george.bluth@reqres.in","first_name":"George","last_name":"Bluth","avatar":"https://reqres.in/img/faces/1-image.jpg"},{"id":2,"email":"janet.weaver@reqres.in","first_name":"Janet","last_name":"Weaver","avatar":"https://reqres.in/img/faces/2-image.jpg"},{"id":3,"email":"emma.wong@reqres.in","first_name":"Emma","last_name":"Wong","avatar":"https://reqres.in/img/faces/3-image.jpg"},{"id":4,"email":"eve.holt@reqres.in","first_name":"Eve","last_name":"Holt","avatar":"https://reqres.in/img/faces/4-image.jpg"},{"id":5,"email":"charles.morris@reqres.in","first_name":"Charles","last_name":"Morris","avatar":"https://reqres.in/img/faces/5-image.jpg"},{"id":6,"email":"tracey.ramos@reqres.in","first_name":"Tracey","last_name":"Ramos","avatar":"https://reqres.in/img/faces/6-image.jpg"}],"support":{"url":"https://contentcaddy.io?utm_source=reqres&utm_medium=json&utm_campaign=referral","text":"Tired of writing endless social media content? Let Content Caddy generate it for you."}}]]></expected>
          <message>Proxying REST test case failed.</message>
        </assertEquals>
      </assertions>
    </test-case>
  </test-cases>
  <mock-services>
    <mock-service>src/test/resources/mock-services/ProxyingRESTMockService.xml</mock-service>
  </mock-services>
</unit-test>
